@startuml

[*] --> SettingGame : Creates a new bucket / game

State SettingGame {
  [*] --> ReceivingNewPlayer : A new player joined the party
  --
  [*] --> HandlePlayerSetting : A player changed a setting
}

SettingGame --> SendingGameSettings : Each player is ready

SendingGameSettings --> Playing : Each player received settings

Playing --> DisplayingGameStats

State Playing {
  [*] --> Waiting
  Waiting --> TriggerNextRound : Each player has processed current round
  TriggerNextRound --> Waiting
  --
  [*] --> BroadcastPlayerCommand : A player sends a command
}

DisplayingGameStats --> [*] : Each player went away

@enduml
